<?xml version="1.0" encoding="utf-8"?>
<!-- Generator: Adobe Illustrator 15.0.2, SVG Export Plug-In . SVG Version: 6.00 Build 0)  -->
<!DOCTYPE svg PUBLIC "-//W3C//DTD SVG 1.1//EN" "http://www.w3.org/Graphics/SVG/1.1/DTD/svg11.dtd">
<svg version="1.1" id="Layer_1" xmlns="http://www.w3.org/2000/svg" xmlns:xlink="http://www.w3.org/1999/xlink" x="0px" y="0px"
	 width="1027.112px" height="1043.211px" viewBox="0 0 1027.112 1043.211" enable-background="new 0 0 1027.112 1043.211"
	 xml:space="preserve">
<path fill-rule="evenodd" clip-rule="evenodd" fill="#ED1D24" stroke="#000000" stroke-width="2" stroke-miterlimit="10" d="
	M100.506,725.886c0,0,168.282,3.044,200.462-66.529l76.096-216.986l-193.503-0.436l83.923-283.951c0,0,93.928-2.609,148.716-51.312
	c0,0,60.009-47.397,67.399-105.667l542.249,3.045L887.571,587.171c0,0-16.743,108.495,130.016,108.495l-80.882,345.697
	l-935.343,0.654L100.506,725.886z"/>
<path fill-rule="evenodd" clip-rule="evenodd" fill="#3953A4" stroke="#000000" stroke-width="2" stroke-miterlimit="10" d="
	M237.48,398.232l651.612-1.304L974.54,46.011l-456.585-1.305c0,0-48.919,161.111-221.117,158.501L237.48,398.232z"/>
<path fill-rule="evenodd" clip-rule="evenodd" fill="#FFFFFF" stroke="#000000" stroke-width="2" stroke-miterlimit="10" d="
	M416.201,442.587l463.759,1.957l-10.438,52.833H399.242L416.201,442.587z"/>
<path fill-rule="evenodd" clip-rule="evenodd" fill="#FFFFFF" stroke="#000000" stroke-width="2" stroke-miterlimit="10" d="
	M386.197,543.033l468.976,1.307l-8.481,49.57l-475.497-1.303L386.197,543.033z"/>
<path fill-rule="evenodd" clip-rule="evenodd" fill="#FFFFFF" stroke="#000000" stroke-width="2" stroke-miterlimit="10" d="
	M356.845,635.657l490.502,1.304c0,0-6.521,17.611,21.522,41.743l-528.332-0.648L356.845,635.657z"/>
<path fill-rule="evenodd" clip-rule="evenodd" fill="#FFFFFF" stroke="#000000" stroke-width="2" stroke-miterlimit="10" d="
	M127.249,769.368c0,0,163.719,0.654,196.982-54.135l591.604-1.305c0,0,20.219,16.306,58.705,16.959l-69.142,273.949l-854.465,2.609
	L127.249,769.368z"/>
<path fill-rule="evenodd" clip-rule="evenodd" fill="#FFFFFF" d="M525.781,143.851l27.392-54.138l7.179,53.486l44.354,1.306
	l-39.788,28.047l5.219,56.093l-36.528-33.918l-50.876,34.571l26.743-54.791l-32.614-30.003L525.781,143.851z"/>
<path fill-rule="evenodd" clip-rule="evenodd" fill="#FFFFFF" d="M688.194,144.504l27.396-53.487l7.828,52.833l43.045,1.305
	l-39.135,28.047l5.872,56.746l-37.83-35.873l-49.571,33.264l26.091-52.833l-30.657-29.352L688.194,144.504z"/>
<path fill-rule="evenodd" clip-rule="evenodd" fill="#FFFFFF" d="M803.645,144.504l46.963-0.653l29.352-54.138l7.177,54.138
	l43.047,1.305l-40.437,27.396l5.866,56.093l-37.179-34.568l-48.921,31.959l24.788-51.528L803.645,144.504z"/>
<path fill-rule="evenodd" clip-rule="evenodd" fill="#FFFFFF" d="M414.897,271.042l28.046-50.878l7.175,51.529h44.352l-40.44,31.309
	l5.871,54.137l-37.832-33.916l-48.919,33.264l25.438-53.485l-32.613-30.657L414.897,271.042z"/>
<path fill-rule="evenodd" clip-rule="evenodd" fill="#FFFFFF" d="M581.879,273.651l28.695-54.137l6.522,54.137l45.005,1.305
	l-39.787,27.396l5.219,55.441l-37.831-31.961l-50.225,33.266l26.092-54.791l-31.311-30.003L581.879,273.651z"/>
<path fill-rule="evenodd" clip-rule="evenodd" fill="#FFFFFF" d="M739.069,274.303l28.701-54.138l7.177,53.486l44.351,1.305
	l-39.135,27.396l3.263,56.094l-37.178-32.613l-48.921,33.266l25.438-52.833l-31.961-31.308L739.069,274.303z"/>
<text transform="matrix(1 0 0 1 111.5493 975.2617)" font-family="'MyriadPro-BoldIt'" font-size="271.7986">COMM</text>
</svg>
